student_choi/VHDL_SOC/4_04_ex015_fourbit_addsub/fourbit_addsub_sw/simulation/qsim/fourbit_addsub.msim.vcd
$comment
	File created using the following command:
		vcd file fourbit_addsub.msim.vcd -direction
$end
$date
	Mon Apr 08 11:57:00 2019
$end
$version
	ModelSim Version 10.1d
$end
$timescale
	1ps
$end
$scope module fourbit_addsub_vlg_vec_tst $end
$var reg 4 ! addsub_a [3:0] $end
$var reg 4 " addsub_b [3:0] $end
$var reg 1 # Msign $end
$var wire 1 $ addsub_num [4] $end
$var wire 1 % addsub_num [3] $end
$var wire 1 & addsub_num [2] $end
$var wire 1 ' addsub_num [1] $end
$var wire 1 ( addsub_num [0] $end
$var wire 1 ) sampler $end
$scope module i1 $end
$var wire 1 * gnd $end
$var wire 1 + vcc $end
$var wire 1 , unknown $end
$var tri1 1 - devclrn $end
$var tri1 1 . devpor $end
$var tri1 1 / devoe $end
$var wire 1 0 u0|half2|s~0_combout $end
$var wire 1 1 Msign~combout $end
$var wire 1 2 u0|half2|co~combout $end
$var wire 1 3 u0|half1|co~combout $end
$var wire 1 4 b1|process_0~0_combout $end
$var wire 1 5 u1|half2|s~combout $end
$var wire 1 6 u1|org|C~0_combout $end
$var wire 1 7 u2|half2|s~0_combout $end
$var wire 1 8 u2|org|C~0_combout $end
$var wire 1 9 u3|half2|s~0_combout $end
$var wire 1 : u3|org|C~0_combout $end
$var wire 1 ; addsub_b~combout [3] $end
$var wire 1 < addsub_b~combout [2] $end
$var wire 1 = addsub_b~combout [1] $end
$var wire 1 > addsub_b~combout [0] $end
$var wire 1 ? addsub_a~combout [3] $end
$var wire 1 @ addsub_a~combout [2] $end
$var wire 1 A addsub_a~combout [1] $end
$var wire 1 B addsub_a~combout [0] $end
$upscope $end
$upscope $end
$enddefinitions $end
#0
$dumpvars
b11 !
b11 "
0#
0(
1'
1&
0%
0$
x)
0*
1+
x,
1-
1.
1/
00
01
02
13
14
15
16
17
08
09
0:
1>
1=
0<
0;
1B
1A
0@
0?
$end
#160000
b10 !
1#
0B
11
0)
03
10
19
18
07
04
06
1:
09
1(
1%
0&
08
17
1$
0%
0:
19
1&
0$
1%
#320000
b1010 !
b1110 !
0#
1@
1?
01
1)
14
16
05
18
07
0'
1:
09
0&
1$
0%
#480000
b1100 !
b1101 !
b101 !
b1 !
1#
1B
0A
0@
0?
11
0)
12
00
06
15
04
08
17
0(
1'
0:
19
1&
0$
1%
#640000
b11 !
b1011 !
0#
1A
1?
01
1)
16
05
07
14
13
02
17
15
0'
0&
1&
1'
#660000
b111 "
1<
0)
18
07
1:
09
0&
1$
0%
#800000
b1111 !
b111 !
1#
1@
0?
11
1)
04
03
12
05
0'
#960000
b110 !
0#
0B
01
0)
02
10
0:
19
17
14
1(
0$
1%
1&
