student_choi/VHDL_SOC/4_17_ex023_eittothreeencoder/eittothreeencoder_sw/simulation/qsim/eittothreeencoder.msim.vcd
$comment
	File created using the following command:
		vcd file eittothreeencoder.msim.vcd -direction
$end
$date
	Wed Apr 17 10:15:12 2019
$end
$version
	ModelSim Version 10.1d
$end
$timescale
	1ps
$end
$scope module eittothreeencoder_vlg_vec_tst $end
$var reg 8 ! A [7:0] $end
$var wire 1 " Yo [2] $end
$var wire 1 # Yo [1] $end
$var wire 1 $ Yo [0] $end
$var wire 1 % sampler $end
$scope module i1 $end
$var wire 1 & gnd $end
$var wire 1 ' vcc $end
$var wire 1 ( unknown $end
$var tri1 1 ) devclrn $end
$var tri1 1 * devpor $end
$var tri1 1 + devoe $end
$var wire 1 , Yo~0_combout $end
$var wire 1 - Yo~1_combout $end
$var wire 1 . Yo~2_combout $end
$var wire 1 / A~combout [7] $end
$var wire 1 0 A~combout [6] $end
$var wire 1 1 A~combout [5] $end
$var wire 1 2 A~combout [4] $end
$var wire 1 3 A~combout [3] $end
$var wire 1 4 A~combout [2] $end
$var wire 1 5 A~combout [1] $end
$var wire 1 6 A~combout [0] $end
$upscope $end
$upscope $end
$enddefinitions $end
#0
$dumpvars
b0 !
0$
0#
0"
x%
0&
1'
x(
1)
1*
1+
0,
0-
0.
z6
05
04
03
02
01
00
0/
$end
#80000
b1 !
0%
#160000
b11 !
b10 !
15
1%
1,
1$
#240000
b110 !
b100 !
05
14
0%
0,
1-
0$
1#
#400000
b1100 !
b1000 !
04
13
1%
1,
1$
#480000
b1010 !
b10 !
b110 !
15
14
03
0%
#560000
b111 !
1%
#640000
b101 !
b1101 !
b1001 !
b1000 !
05
04
13
0%
#720000
b1001 !
1%
#800000
b1011 !
b1010 !
15
0%
#880000
b1011 !
1%
#960000
b1111 !
b1101 !
b1100 !
05
14
0%
