student_choi/VHDL_SOC/5_29_ex051_sec_gen/sec_gen_sw/simulation/qsim/sec_gen.msim.vcd
$comment
	File created using the following command:
		vcd file sec_gen.msim.vcd -direction
$end
$date
	Wed May 29 11:06:53 2019
$end
$version
	ModelSim Version 10.1d
$end
$timescale
	1ps
$end
$scope module sec_gen_vlg_vec_tst $end
$var reg 1 ! clk $end
$var reg 1 " nrst $end
$var wire 1 # sec_sig $end
$var wire 1 $ sampler $end
$scope module i1 $end
$var wire 1 % gnd $end
$var wire 1 & vcc $end
$var wire 1 ' unknown $end
$var tri1 1 ( devclrn $end
$var tri1 1 ) devpor $end
$var tri1 1 * devoe $end
$var wire 1 + Add0~4_combout $end
$var wire 1 , Add0~8_combout $end
$var wire 1 - Add0~16_combout $end
$var wire 1 . Add0~30_combout $end
$var wire 1 / Add0~34_combout $end
$var wire 1 0 Add0~47 $end
$var wire 1 1 Add0~48_combout $end
$var wire 1 2 Equal0~3_combout $end
$var wire 1 3 cnt~1_combout $end
$var wire 1 4 clk~combout $end
$var wire 1 5 clk~clkctrl_outclk $end
$var wire 1 6 cnt~4_combout $end
$var wire 1 7 nrst~combout $end
$var wire 1 8 nrst~clkctrl_outclk $end
$var wire 1 9 Add0~0_combout $end
$var wire 1 : Add0~1 $end
$var wire 1 ; Add0~3 $end
$var wire 1 < Add0~5 $end
$var wire 1 = Add0~6_combout $end
$var wire 1 > Add0~7 $end
$var wire 1 ? Add0~9 $end
$var wire 1 @ Add0~10_combout $end
$var wire 1 A Add0~11 $end
$var wire 1 B Add0~12_combout $end
$var wire 1 C cnt~3_combout $end
$var wire 1 D Add0~13 $end
$var wire 1 E Add0~15 $end
$var wire 1 F Add0~17 $end
$var wire 1 G Add0~18_combout $end
$var wire 1 H Add0~19 $end
$var wire 1 I Add0~20_combout $end
$var wire 1 J Add0~21 $end
$var wire 1 K Add0~22_combout $end
$var wire 1 L cnt~0_combout $end
$var wire 1 M Add0~23 $end
$var wire 1 N Add0~24_combout $end
$var wire 1 O Add0~25 $end
$var wire 1 P Add0~26_combout $end
$var wire 1 Q Add0~27 $end
$var wire 1 R Add0~28_combout $end
$var wire 1 S Add0~29 $end
$var wire 1 T Add0~31 $end
$var wire 1 U Add0~32_combout $end
$var wire 1 V Add0~33 $end
$var wire 1 W Add0~35 $end
$var wire 1 X Add0~37 $end
$var wire 1 Y Add0~38_combout $end
$var wire 1 Z Add0~39 $end
$var wire 1 [ Add0~41 $end
$var wire 1 \ Add0~42_combout $end
$var wire 1 ] Add0~43 $end
$var wire 1 ^ Add0~44_combout $end
$var wire 1 _ Add0~45 $end
$var wire 1 ` Add0~46_combout $end
$var wire 1 a Equal0~0_combout $end
$var wire 1 b Add0~40_combout $end
$var wire 1 c Add0~36_combout $end
$var wire 1 d Equal0~1_combout $end
$var wire 1 e Equal0~2_combout $end
$var wire 1 f Equal0~4_combout $end
$var wire 1 g Add0~14_combout $end
$var wire 1 h cnt~2_combout $end
$var wire 1 i Equal0~5_combout $end
$var wire 1 j Add0~2_combout $end
$var wire 1 k Equal0~6_combout $end
$var wire 1 l Equal0~7_combout $end
$var wire 1 m sig~0_combout $end
$var wire 1 n sig~regout $end
$var wire 1 o cnt [24] $end
$var wire 1 p cnt [23] $end
$var wire 1 q cnt [22] $end
$var wire 1 r cnt [21] $end
$var wire 1 s cnt [20] $end
$var wire 1 t cnt [19] $end
$var wire 1 u cnt [18] $end
$var wire 1 v cnt [17] $end
$var wire 1 w cnt [16] $end
$var wire 1 x cnt [15] $end
$var wire 1 y cnt [14] $end
$var wire 1 z cnt [13] $end
$var wire 1 { cnt [12] $end
$var wire 1 | cnt [11] $end
$var wire 1 } cnt [10] $end
$var wire 1 ~ cnt [9] $end
$var wire 1 !! cnt [8] $end
$var wire 1 "! cnt [7] $end
$var wire 1 #! cnt [6] $end
$var wire 1 $! cnt [5] $end
$var wire 1 %! cnt [4] $end
$var wire 1 &! cnt [3] $end
$var wire 1 '! cnt [2] $end
$var wire 1 (! cnt [1] $end
$var wire 1 )! cnt [0] $end
$upscope $end
$upscope $end
$enddefinitions $end
#0
$dumpvars
0!
0"
0#
x$
0%
1&
x'
1(
1)
1*
0+
0,
0-
0.
0/
10
01
02
03
04
05
06
07
08
19
0:
1;
0<
0=
1>
0?
0@
1A
0B
0C
0D
1E
0F
0G
1H
0I
0J
0K
0L
1M
0N
0O
0P
1Q
0R
0S
1T
0U
0V
1W
0X
0Y
1Z
0[
0\
1]
0^
0_
0`
1a
0b
0c
1d
1e
0f
0g
0h
0i
0j
0k
0l
0m
0n
0)!
0(!
0'!
0&!
0%!
0$!
0#!
0"!
0!!
0~
0}
0|
0{
0z
0y
0x
0w
0v
0u
0t
0s
0r
0q
0p
0o
$end
#10000
1!
14
15
0$
#20000
0!
04
05
1$
#30000
1!
14
15
0$
#40000
0!
04
05
1$
#50000
1!
14
15
0$
#60000
0!
04
05
1$
#70000
1!
14
15
0$
#80000
0!
04
05
1$
#90000
1!
14
15
0$
#100000
0!
04
05
1$
#110000
1!
14
15
0$
#120000
0!
04
05
1$
#130000
1!
14
15
0$
#140000
0!
04
05
1$
#150000
1!
14
15
0$
#160000
0!
04
05
1$
#170000
1!
14
15
0$
#180000
0!
04
05
1$
#190000
1!
14
15
0$
#200000
0!
04
05
1$
#210000
1!
14
15
0$
#220000
0!
04
05
1$
#230000
1!
14
15
0$
#240000
0!
04
05
1$
#250000
1!
14
15
0$
#260000
0!
04
05
1$
#270000
1!
14
15
0$
#280000
0!
04
05
1$
#290000
1!
14
15
0$
#300000
0!
04
05
1$
#310000
1!
14
15
0$
#320000
0!
04
05
1$
#330000
1!
14
15
0$
#340000
0!
04
05
1$
#350000
1!
14
15
0$
#360000
0!
04
05
1$
#370000
1!
14
15
0$
#380000
0!
04
05
1$
#390000
1!
14
15
0$
#400000
0!
04
05
1$
#410000
1!
14
15
0$
#420000
0!
04
05
1$
#430000
1!
14
15
0$
#440000
0!
04
05
1$
#450000
1!
14
15
0$
#460000
0!
04
05
1$
#470000
1!
14
15
0$
#480000
0!
04
05
1$
#490000
1!
14
15
0$
#500000
0!
04
05
1$
#510000
1!
14
15
0$
#520000
0!
04
05
1$
#530000
1!
14
15
0$
#540000
0!
04
05
1$
#550000
1!
14
15
0$
#560000
0!
04
05
1$
#570000
1!
14
15
0$
#580000
0!
04
05
1$
#590000
1!
14
15
0$
#600000
0!
04
05
1$
#610000
1!
14
15
0$
#620000
0!
04
05
1$
#630000
1!
14
15
0$
#640000
0!
04
05
1$
#650000
1!
14
15
0$
#660000
0!
04
05
1$
#670000
1!
14
15
0$
#680000
0!
04
05
1$
#690000
1!
14
15
0$
#700000
0!
04
05
1$
#710000
1!
14
15
0$
#720000
0!
04
05
1$
#730000
1!
14
15
0$
#740000
0!
04
05
1$
#750000
1!
14
15
0$
#760000
0!
04
05
1$
#770000
1!
14
15
0$
#780000
0!
04
05
1$
#790000
1!
14
15
0$
#800000
0!
04
05
1$
#810000
1!
14
15
0$
#820000
0!
04
05
1$
#830000
1!
14
15
0$
#840000
0!
04
05
1$
#850000
1!
14
15
0$
#860000
0!
04
05
1$
#870000
1!
14
15
0$
#880000
0!
04
05
1$
#890000
1!
14
15
0$
#900000
0!
04
05
1$
#910000
1!
14
15
0$
#920000
0!
04
05
1$
#930000
1!
14
15
0$
#940000
0!
04
05
1$
#950000
1!
14
15
0$
#960000
0!
04
05
1$
#970000
1!
14
15
0$
#980000
0!
04
05
1$
#990000
1!
14
15
0$
#1000000
0!
04
05
1$
#1010000
1!
14
15
0$
#1020000
0!
04
05
1$
#1030000
1!
14
15
0$
#1040000
0!
04
05
1$
#1050000
1!
14
15
0$
#1060000
0!
04
05
1$
#1070000
1!
14
15
0$
#1080000
0!
04
05
1$
#1090000
1!
14
15
0$
#1100000
0!
04
05
1$
#1110000
1!
14
15
0$
#1120000
0!
04
05
1$
#1130000
1!
14
15
0$
#1140000
0!
04
05
1$
#1150000
1!
14
15
0$
#1160000
0!
04
05
1$
#1170000
1!
14
15
0$
#1180000
0!
04
05
1$
#1190000
1!
14
15
0$
#1200000
0!
04
05
1$
#1210000
1!
14
15
0$
#1220000
0!
04
05
1$
#1230000
1!
14
15
0$
#1240000
0!
04
05
1$
#1250000
1!
14
15
0$
#1260000
0!
04
05
1$
#1270000
1!
14
15
0$
#1280000
0!
04
05
1$
#1290000
1!
14
15
0$
#1300000
0!
04
05
1$
#1310000
1!
14
15
0$
#1320000
0!
04
05
1$
#1330000
1!
14
15
0$
#1340000
0!
04
05
1$
#1350000
1!
14
15
0$
#1360000
0!
04
05
1$
#1370000
1!
14
15
0$
#1380000
0!
04
05
1$
#1390000
1!
14
15
0$
#1400000
0!
04
05
1$
#1410000
1!
14
15
0$
#1420000
0!
04
05
1$
#1430000
1!
14
15
0$
#1440000
0!
04
05
1$
#1450000
1!
14
15
0$
#1460000
0!
04
05
1$
#1470000
1!
14
15
0$
#1480000
0!
04
05
1$
#1490000
1!
14
15
0$
#1500000
0!
04
05
1$
#1510000
1!
14
15
0$
#1520000
0!
04
05
1$
#1530000
1!
14
15
0$
#1540000
0!
04
05
1$
#1550000
1!
14
15
0$
#1560000
0!
04
05
1$
#1570000
1!
14
15
0$
#1580000
0!
04
05
1$
#1590000
1!
14
15
0$
#1600000
0!
04
05
1$
#1610000
1!
14
15
0$
#1620000
0!
04
05
1$
#1630000
1!
14
15
0$
#1640000
0!
04
05
1$
#1650000
1!
14
15
0$
#1660000
0!
04
05
1$
#1670000
1!
14
15
0$
#1680000
0!
04
05
1$
#1690000
1!
14
15
0$
#1700000
0!
04
05
1$
#1710000
1!
14
15
0$
#1720000
0!
04
05
1$
#1730000
1!
14
15
0$
#1740000
0!
04
05
1$
#1750000
1!
14
15
0$
#1760000
0!
04
05
1$
#1770000
1!
14
15
0$
#1780000
0!
04
05
1$
#1790000
1!
14
15
0$
#1800000
0!
04
05
1$
#1810000
1!
14
15
0$
#1820000
0!
04
05
1$
#1830000
1!
14
15
0$
#1840000
0!
04
05
1$
#1850000
1!
14
15
0$
#1860000
0!
04
05
1$
#1870000
1!
14
15
0$
#1880000
0!
04
05
1$
#1890000
1!
14
15
0$
#1900000
0!
04
05
1$
#1910000
1!
14
15
0$
#1920000
0!
04
05
1$
#1930000
1!
14
15
0$
#1940000
0!
04
05
1$
#1950000
1!
14
15
0$
#1960000
0!
04
05
1$
#1970000
1!
14
15
0$
#1980000
0!
04
05
1$
#1990000
1!
14
15
0$
#2000000
0!
04
05
1$
#2010000
1!
14
15
0$
#2020000
0!
04
05
1$
#2030000
1!
14
15
0$
#2040000
0!
04
05
1$
#2050000
1!
14
15
0$
#2060000
0!
04
05
1$
#2070000
1!
14
15
0$
#2080000
0!
04
05
1$
#2090000
1!
14
15
0$
#2100000
0!
04
05
1$
#2110000
1!
14
15
0$
#2120000
0!
04
05
1$
#2130000
1!
14
15
0$
#2140000
0!
04
05
1$
#2150000
1!
14
15
0$
#2160000
0!
04
05
1$
#2170000
1!
14
15
0$
#2180000
0!
04
05
1$
#2190000
1!
14
15
0$
#2200000
0!
04
05
1$
#2210000
1!
14
15
0$
#2220000
0!
04
05
1$
#2230000
1!
14
15
0$
#2240000
0!
04
05
1$
#2250000
1!
14
15
0$
#2260000
0!
04
05
1$
#2270000
1!
14
15
0$
#2280000
0!
04
05
1$
#2290000
1!
14
15
0$
#2300000
0!
04
05
1$
#2310000
1!
14
15
0$
#2320000
0!
04
05
1$
#2330000
1!
14
15
0$
#2340000
0!
04
05
1$
#2350000
1!
14
15
0$
#2360000
0!
04
05
1$
#2370000
1!
14
15
0$
#2380000
0!
04
05
1$
#2390000
1!
14
15
0$
#2400000
0!
04
05
1$
#2410000
1!
14
15
0$
#2420000
0!
04
05
1$
#2430000
1!
14
15
0$
#2440000
0!
04
05
1$
#2450000
1!
14
15
0$
#2460000
0!
04
05
1$
#2470000
1!
14
15
0$
#2480000
0!
04
05
1$
#2490000
1!
14
15
0$
#2500000
0!
04
05
1$
#2510000
1!
14
15
0$
#2520000
0!
04
05
1$
#2530000
1!
14
15
0$
#2540000
0!
04
05
1$
#2550000
1!
14
15
0$
#2560000
1"
0!
17
04
05
18
1$
#2570000
1!
14
15
0$
1)!
1:
09
1j
#2580000
0!
04
05
1$
#2590000
1!
14
15
0$
1(!
0)!
1k
0;
0j
0:
19
1+
1;
1j
16
0+
06
#2600000
0!
04
05
1$
#2610000
1!
14
15
0$
1)!
1:
09
0;
0j
1+
16
#2620000
0!
04
05
1$
#2630000
1!
14
15
0$
0(!
0)!
1'!
0k
1;
1j
0:
19
1<
0+
0<
1+
0j
1=
06
0=
16
#2640000
0!
04
05
1$
#2650000
1!
14
15
0$
1)!
1:
09
1j
#2660000
0!
04
05
1$
#2670000
1!
14
15
0$
1(!
0)!
0;
0j
0:
19
1<
0+
1;
1j
1=
06
0<
1+
0=
16
#2680000
0!
04
05
1$
#2690000
1!
14
15
0$
1)!
1:
09
0;
0j
1<
0+
1=
06
#2700000
0!
04
05
1$
#2710000
1!
14
15
0$
0(!
1&!
0)!
0'!
1;
1j
0>
0=
0:
19
0<
1+
0+
1,
0j
1>
1=
16
06
0,
#2720000
0!
04
05
1$
#2730000
1!
14
15
0$
1)!
1:
09
1j
#2740000
0!
04
05
1$
#2750000
1!
14
15
0$
1(!
0)!
0;
0j
0:
19
1+
1;
1j
16
0+
06
#2760000
0!
04
05
1$
#2770000
1!
14
15
0$
1)!
1:
09
0;
0j
1+
16
#2780000
0!
04
05
1$
#2790000
1!
14
15
0$
0(!
0)!
1'!
1;
1j
0:
19
1<
0+
0<
1+
0j
0>
0=
06
1>
1=
16
1,
0,
#2800000
0!
04
05
1$
#2810000
1!
14
15
0$
1)!
1:
09
1j
#2820000
0!
04
05
1$
#2830000
1!
14
15
0$
1(!
0)!
0;
0j
0:
19
1<
0+
1;
1j
0>
0=
06
0<
1+
1,
1>
1=
16
0,
#2840000
0!
04
05
1$
#2850000
1!
14
15
0$
1)!
1:
09
0;
0j
1<
0+
0>
0=
06
1,
#2860000
0!
04
05
1$
#2870000
1!
14
15
0$
0(!
0&!
0)!
0'!
1%!
1;
1j
1>
1=
0:
19
0<
1+
1?
0,
0+
0?
1,
0j
0=
16
1@
06
0@
#2880000
0!
04
05
1$
#2890000
1!
14
15
0$
1)!
1:
09
1j
#2900000
0!
04
05
1$
#2910000
1!
14
15
0$
1(!
0)!
0;
0j
0:
19
1+
1;
1j
16
0+
06
#2920000
0!
04
05
1$
#2930000
1!
14
15
0$
1)!
1:
09
0;
0j
1+
16
#2940000
0!
04
05
1$
#2950000
1!
14
15
0$
0(!
0)!
1'!
1;
1j
0:
19
1<
0+
0<
1+
0j
1=
06
0=
16
#2960000
0!
04
05
1$
#2970000
1!
14
15
0$
1)!
1:
09
1j
#2980000
0!
04
05
1$
#2990000
1!
14
15
0$
1(!
0)!
0;
0j
0:
19
1<
0+
1;
1j
1=
06
0<
1+
0=
16
#3000000
0!
04
05
1$
#3010000
1!
14
15
0$
1)!
1:
09
0;
0j
1<
0+
1=
06
#3020000
0!
04
05
1$
#3030000
1!
14
15
0$
0(!
1&!
0)!
0'!
1;
1j
0>
0=
0:
19
0<
1+
0+
1?
0,
0j
1>
1=
16
06
1@
0?
1,
0@
#3040000
0!
04
05
1$
#3050000
1!
14
15
0$
1)!
1:
09
1j
#3060000
0!
04
05
1$
#3070000
1!
14
15
0$
1(!
0)!
0;
0j
0:
19
1+
1;
1j
16
0+
06
#3080000
0!
04
05
1$
#3090000
1!
14
15
0$
1)!
1:
09
0;
0j
1+
16
#3100000
0!
04
05
1$
#3110000
1!
14
15
0$
0(!
0)!
1'!
1;
1j
0:
19
1<
0+
0<
1+
0j
0>
0=
06
1>
1=
16
1?
0,
0?
1,
1@
0@
#3120000
0!
04
05
1$
#3130000
1!
14
15
0$
1)!
1:
09
1j
#3140000
0!
04
05
1$
#3150000
1!
14
15
0$
1(!
0)!
0;
0j
0:
19
1<
0+
1;
1j
0>
0=
06
0<
1+
1?
0,
1>
1=
16
1@
0?
1,
0@
#3160000
0!
04
05
1$
#3170000
1!
14
15
0$
1)!
1:
09
0;
0j
1<
0+
0>
0=
06
1?
0,
1@
#3180000
0!
04
05
1$
#3190000
1!
14
15
0$
0(!
1$!
0&!
0)!
0'!
0%!
1;
1j
0A
0@
1>
1=
0:
19
0<
1+
0?
1,
0+
1B
0,
0j
0=
16
1A
1@
06
1C
0B
0C
#3200000
0!
04
05
1$
#3210000
1!
14
15
0$
1)!
1:
09
1j
#3220000
0!
04
05
1$
#3230000
1!
14
15
0$
1(!
0)!
1k
0;
0j
0:
19
1+
1;
1j
16
0+
06
#3240000
0!
04
05
1$
#3250000
1!
14
15
0$
1)!
1:
09
0;
0j
1+
16
#3260000
0!
04
05
1$
#3270000
1!
14
15
0$
0(!
0)!
1'!
0k
1;
1j
0:
19
1<
0+
0<
1+
0j
1=
06
0=
16
#3280000
0!
04
05
1$
#3290000
1!
14
15
0$
1)!
1:
09
1j
#3300000
0!
04
05
1$
#3310000
1!
14
15
0$
1(!
0)!
0;
0j
0:
19
1<
0+
1;
1j
1=
06
0<
1+
0=
16
#3320000
0!
04
05
1$
#3330000
1!
14
15
0$
1)!
1:
09
0;
0j
1<
0+
1=
06
#3340000
0!
04
05
1$
#3350000
1!
14
15
0$
0(!
1&!
0)!
0'!
1;
1j
0>
0=
0:
19
0<
1+
0+
1,
0j
1>
1=
16
06
0,
#3360000
0!
04
05
1$
#3370000
1!
14
15
0$
1)!
1:
09
1j
#3380000
0!
04
05
1$
#3390000
1!
14
15
0$
1(!
0)!
0;
0j
0:
19
1+
1;
1j
16
0+
06
#3400000
0!
04
05
1$
#3410000
1!
14
15
0$
1)!
1:
09
0;
0j
1+
16
#3420000
0!
04
05
1$
#3430000
1!
14
15
0$
0(!
0)!
1'!
1;
1j
0:
19
1<
0+
0<
1+
0j
0>
0=
06
1>
1=
16
1,
0,
#3440000
0!
04
05
1$
#3450000
1!
14
15
0$
1)!
1:
09
1j
#3460000
0!
04
05
1$
#3470000
1!
14
15
0$
1(!
0)!
0;
0j
0:
19
1<
0+
1;
1j
0>
0=
06
0<
1+
1,
1>
1=
16
0,
#3480000
0!
04
05
1$
#3490000
1!
14
15
0$
1)!
1:
09
0;
0j
1<
0+
0>
0=
06
1,
#3500000
0!
04
05
1$
#3510000
1!
14
15
0$
0(!
0&!
0)!
0'!
1%!
1;
1j
1>
1=
0:
19
0<
1+
1?
0,
0+
0?
1,
0j
0=
16
0A
0@
06
1A
1@
1B
0B
1C
0C
#3520000
0!
04
05
1$
#3530000
1!
14
15
0$
1)!
1:
09
1j
#3540000
0!
04
05
1$
#3550000
1!
14
15
0$
1(!
0)!
0;
0j
0:
19
1+
1;
1j
16
0+
06
#3560000
0!
04
05
1$
#3570000
1!
14
15
0$
1)!
1:
09
0;
0j
1+
16
#3580000
0!
04
05
1$
#3590000
1!
14
15
0$
0(!
0)!
1'!
1;
1j
0:
19
1<
0+
0<
1+
0j
1=
06
0=
16
#3600000
0!
04
05
1$
#3610000
1!
14
15
0$
1)!
1:
09
1j
#3620000
0!
04
05
1$
#3630000
1!
14
15
0$
1(!
0)!
0;
0j
0:
19
1<
0+
1;
1j
1=
06
0<
1+
0=
16
#3640000
0!
04
05
1$
#3650000
1!
14
15
0$
1)!
1:
09
0;
0j
1<
0+
1=
06
#3660000
0!
04
05
1$
#3670000
1!
14
15
0$
0(!
1&!
0)!
0'!
1;
1j
0>
0=
0:
19
0<
1+
0+
1?
0,
0j
1>
1=
16
06
0A
0@
0?
1,
1B
1A
1@
1C
0B
0C
#3680000
0!
04
05
1$
#3690000
1!
14
15
0$
1)!
1:
09
1j
#3700000
0!
04
05
1$
#3710000
1!
14
15
0$
1(!
0)!
0;
0j
0:
19
1+
1;
1j
16
0+
06
#3720000
0!
04
05
1$
#3730000
1!
14
15
0$
1)!
1:
09
0;
0j
1+
16
#3740000
0!
04
05
1$
#3750000
1!
14
15
0$
0(!
0)!
1'!
1;
1j
0:
19
1<
0+
0<
1+
0j
0>
0=
06
1>
1=
16
1?
0,
0?
1,
0A
0@
1A
1@
1B
0B
1C
0C
#3760000
0!
04
05
1$
#3770000
1!
14
15
0$
1)!
1:
09
1j
#3780000
0!
04
05
1$
#3790000
1!
14
15
0$
1(!
0)!
0;
0j
0:
19
1<
0+
1;
1j
0>
0=
06
0<
1+
1?
0,
1>
1=
16
0A
0@
0?
1,
1B
1A
1@
1C
0B
0C
#3800000
0!
04
05
1$
#3810000
1!
14
15
0$
1)!
1:
09
0;
0j
1<
0+
0>
0=
06
1?
0,
0A
0@
1B
1C
#3820000
0!
04
05
1$
#3830000
1!
14
15
0$
0(!
1#!
0$!
0&!
0)!
0'!
0%!
1;
1j
1D
0B
1A
1@
1>
1=
0:
19
0<
1+
0?
1,
0+
1g
0C
0D
1B
0,
0j
0=
16
0@
06
1h
0g
1C
0h
#3840000
0!
04
05
1$
#3850000
1!
14
15
0$
1)!
1:
09
1j
#3860000
0!
04
05
1$
#3870000
1!
14
15
0$
1(!
0)!
1k
0;
0j
0:
19
1+
1;
1j
16
0+
06
#3880000
0!
04
05
1$
#3890000
1!
14
15
0$
1)!
1:
09
0;
0j
1+
16
#3900000
0!
04
05
1$
#3910000
1!
14
15
0$
0(!
0)!
1'!
0k
1;
1j
0:
19
1<
0+
0<
1+
0j
1=
06
0=
16
#3920000
0!
04
05
1$
#3930000
1!
14
15
0$
1)!
1:
09
1j
#3940000
0!
04
05
1$
#3950000
1!
14
15
0$
1(!
0)!
0;
0j
0:
19
1<
0+
1;
1j
1=
06
0<
1+
0=
16
#3960000
0!
04
05
1$
#3970000
1!
14
15
0$
1)!
1:
09
0;
0j
1<
0+
1=
06
#3980000
0!
04
05
1$
#3990000
1!
14
15
0$
0(!
1&!
0)!
0'!
1;
1j
0>
0=
0:
19
0<
1+
0+
1,
0j
1>
1=
16
06
0,
#4000000
0!
04
05
1$
#4010000
1!
14
15
0$
1)!
1:
09
1j
#4020000
0!
04
05
1$
#4030000
1!
14
15
0$
1(!
0)!
0;
0j
0:
19
1+
1;
1j
16
0+
06
#4040000
0!
04
05
1$
#4050000
1!
14
15
0$
1)!
1:
09
0;
0j
1+
16
#4060000
0!
04
05
1$
#4070000
1!
14
15
0$
0(!
0)!
1'!
1;
1j
0:
19
1<
0+
0<
1+
0j
0>
0=
06
1>
1=
16
1,
0,
#4080000
0!
04
05
1$
#4090000
1!
14
15
0$
1)!
1:
09
1j
#4100000
0!
04
05
1$
#4110000
1!
14
15
0$
1(!
0)!
0;
0j
0:
19
1<
0+
1;
1j
0>
0=
06
0<
1+
1,
1>
1=
16
0,
#4120000
0!
04
05
1$
#4130000
1!
14
15
0$
1)!
1:
09
0;
0j
1<
0+
0>
0=
06
1,
#4140000
0!
04
05
1$
#4150000
1!
14
15
0$
0(!
0&!
0)!
0'!
1%!
1;
1j
1>
1=
0:
19
0<
1+
1?
0,
0+
0?
1,
0j
0=
16
1@
06
0@
#4160000
0!
04
05
1$
#4170000
1!
14
15
0$
1)!
1:
09
1j
#4180000
0!
04
05
1$
#4190000
1!
14
15
0$
1(!
0)!
0;
0j
0:
19
1+
1;
1j
16
0+
06
#4200000
0!
04
05
1$
#4210000
1!
14
15
0$
1)!
1:
09
0;
0j
1+
16
#4220000
0!
04
05
1$
#4230000
1!
14
15
0$
0(!
0)!
1'!
1;
1j
0:
19
1<
0+
0<
1+
0j
1=
06
0=
16
#4240000
0!
04
05
1$
#4250000
1!
14
15
0$
1)!
1:
09
1j
#4260000
0!
04
05
1$
#4270000
1!
14
15
0$
1(!
0)!
0;
0j
0:
19
1<
0+
1;
1j
1=
06
0<
1+
0=
16
#4280000
0!
04
05
1$
#4290000
1!
14
15
0$
1)!
1:
09
0;
0j
1<
0+
1=
06
#4300000
0!
04
05
1$
#4310000
1!
14
15
0$
0(!
1&!
0)!
0'!
1;
1j
0>
0=
0:
19
0<
1+
0+
1?
0,
0j
1>
1=
16
06
1@
0?
1,
0@
#4320000
0!
04
05
1$
#4330000
1!
14
15
0$
1)!
1:
09
1j
#4340000
0!
04
05
1$
#4350000
1!
14
15
0$
1(!
0)!
0;
0j
0:
19
1+
1;
1j
16
0+
06
#4360000
0!
04
05
1$
#4370000
1!
14
15
0$
1)!
1:
09
0;
0j
1+
16
#4380000
0!
04
05
1$
#4390000
1!
14
15
0$
0(!
0)!
1'!
1;
1j
0:
19
1<
0+
0<
1+
0j
0>
0=
06
1>
1=
16
1?
0,
0?
1,
1@
0@
#4400000
0!
04
05
1$
#4410000
1!
14
15
0$
1)!
1:
09
1j
#4420000
0!
04
05
1$
#4430000
1!
14
15
0$
1(!
0)!
0;
0j
0:
19
1<
0+
1;
1j
0>
0=
06
0<
1+
1?
0,
1>
1=
16
1@
0?
1,
0@
#4440000
0!
04
05
1$
#4450000
1!
14
15
0$
1)!
1:
09
0;
0j
1<
0+
0>
0=
06
1?
0,
1@
#4460000
0!
04
05
1$
#4470000
1!
14
15
0$
0(!
1$!
0&!
0)!
0'!
0%!
1;
1j
0A
0@
1>
1=
0:
19
0<
1+
0?
1,
0+
1D
0B
0,
0j
0=
16
1A
1@
06
1g
0C
0D
1B
1h
0g
1C
0h
#4480000
0!
04
05
1$
#4490000
1!
14
15
0$
1)!
1:
09
1j
#4500000
0!
04
05
1$
#4510000
1!
14
15
0$
1(!
0)!
1k
0;
0j
0:
19
1+
1;
1j
16
0+
06
#4520000
0!
04
05
1$
#4530000
1!
14
15
0$
1)!
1:
09
0;
0j
1+
16
#4540000
0!
04
05
1$
#4550000
1!
14
15
0$
0(!
0)!
1'!
0k
1;
1j
0:
19
1<
0+
0<
1+
0j
1=
06
0=
16
#4560000
0!
04
05
1$
#4570000
1!
14
15
0$
1)!
1:
09
1j
#4580000
0!
04
05
1$
#4590000
1!
14
15
0$
1(!
0)!
0;
0j
0:
19
1<
0+
1;
1j
1=
06
0<
1+
0=
16
#4600000
0!
04
05
1$
#4610000
1!
14
15
0$
1)!
1:
09
0;
0j
1<
0+
1=
06
#4620000
0!
04
05
1$
#4630000
1!
14
15
0$
0(!
1&!
0)!
0'!
1;
1j
0>
0=
0:
19
0<
1+
0+
1,
0j
1>
1=
16
06
0,
#4640000
0!
04
05
1$
#4650000
1!
14
15
0$
1)!
1:
09
1j
#4660000
0!
04
05
1$
#4670000
1!
14
15
0$
1(!
0)!
0;
0j
0:
19
1+
1;
1j
16
0+
06
#4680000
0!
04
05
1$
#4690000
1!
14
15
0$
1)!
1:
09
0;
0j
1+
16
#4700000
0!
04
05
1$
#4710000
1!
14
15
0$
0(!
0)!
1'!
1;
1j
0:
19
1<
0+
0<
1+
0j
0>
0=
06
1>
1=
16
1,
0,
#4720000
0!
04
05
1$
#4730000
1!
14
15
0$
1)!
1:
09
1j
#4740000
0!
04
05
1$
#4750000
1!
14
15
0$
1(!
0)!
0;
0j
0:
19
1<
0+
1;
1j
0>
0=
06
0<
1+
1,
1>
1=
16
0,
#4760000
0!
04
05
1$
#4770000
1!
14
15
0$
1)!
1:
09
0;
0j
1<
0+
0>
0=
06
1,
#4780000
0!
04
05
1$
#4790000
1!
14
15
0$
0(!
0&!
0)!
0'!
1%!
1;
1j
1>
1=
0:
19
0<
1+
1?
0,
0+
0?
1,
0j
0=
16
0A
0@
06
1A
1@
1D
0B
0D
1B
1g
0C
0g
1C
1h
0h
#4800000
0!
04
05
1$
#4810000
1!
14
15
0$
1)!
1:
09
1j
#4820000
0!
04
05
1$
#4830000
1!
14
15
0$
1(!
0)!
0;
0j
0:
19
1+
1;
1j
16
0+
06
#4840000
0!
04
05
1$
#4850000
1!
14
15
0$
1)!
1:
09
0;
0j
1+
16
#4860000
0!
04
05
1$
#4870000
1!
14
15
0$
0(!
0)!
1'!
1;
1j
0:
19
1<
0+
0<
1+
0j
1=
06
0=
16
#4880000
0!
04
05
1$
#4890000
1!
14
15
0$
1)!
1:
09
1j
#4900000
0!
04
05
1$
#4910000
1!
14
15
0$
1(!
0)!
0;
0j
0:
19
1<
0+
1;
1j
1=
06
0<
1+
0=
16
#4920000
0!
04
05
1$
#4930000
1!
14
15
0$
1)!
1:
09
0;
0j
1<
0+
1=
06
#4940000
0!
04
05
1$
#4950000
1!
14
15
0$
0(!
1&!
0)!
0'!
1;
1j
0>
0=
0:
19
0<
1+
0+
1?
0,
0j
1>
1=
16
06
0A
0@
0?
1,
1D
0B
1A
1@
1g
0C
0D
1B
1h
0g
1C
0h
#4960000
0!
04
05
1$
#4970000
1!
14
15
0$
1)!
1:
09
1j
#4980000
0!
04
05
1$
#4990000
1!
14
15
0$
1(!
0)!
0;
0j
0:
19
1+
1;
1j
16
0+
06
#5000000
0!
04
05
1$
#5010000
1!
14
15
0$
1)!
1:
09
0;
0j
1+
16
#5020000
0!
04
05
1$
#5030000
1!
14
15
0$
0(!
0)!
1'!
1;
1j
0:
19
1<
0+
0<
1+
0j
0>
0=
06
1>
1=
16
1?
0,
0?
1,
0A
0@
1A
1@
1D
0B
0D
1B
1g
0C
0g
1C
1h
0h
#5040000
0!
04
05
1$
#5050000
1!
14
15
0$
1)!
1:
09
1j
#5060000
0!
04
05
1$
#5070000
1!
14
15
0$
1(!
0)!
0;
0j
0:
19
1<
0+
1;
1j
0>
0=
06
0<
1+
1?
0,
1>
1=
16
0A
0@
0?
1,
1D
0B
1A
1@
1g
0C
0D
1B
1h
0g
1C
0h
#5080000
0!
04
05
1$
#5090000
1!
14
15
0$
1)!
1:
09
0;
0j
1<
0+
0>
0=
06
1?
0,
0A
0@
1D
0B
1g
0C
1h
#5100000
0!
04
05
1$
