student_choi/VHDL_SOC/5_15_ex049_sodavending_mechine/sodavending_mechine_sw/simulation/qsim/sodavending_mechine.msim.vcd
$comment
	File created using the following command:
		vcd file sodavending_mechine.msim.vcd -direction
$end
$date
	Mon May 27 21:14:20 2019
$end
$version
	ModelSim Version 10.1d
$end
$timescale
	1ps
$end
$scope module sodavending_mechine_vlg_vec_tst $end
$var reg 2 ! coin [1:0] $end
$var reg 1 " reset $end
$var wire 1 # coffee $end
$var wire 1 $ sevensghund [6] $end
$var wire 1 % sevensghund [5] $end
$var wire 1 & sevensghund [4] $end
$var wire 1 ' sevensghund [3] $end
$var wire 1 ( sevensghund [2] $end
$var wire 1 ) sevensghund [1] $end
$var wire 1 * sevensghund [0] $end
$var wire 1 + sevensgten [6] $end
$var wire 1 , sevensgten [5] $end
$var wire 1 - sevensgten [4] $end
$var wire 1 . sevensgten [3] $end
$var wire 1 / sevensgten [2] $end
$var wire 1 0 sevensgten [1] $end
$var wire 1 1 sevensgten [0] $end
$var wire 1 2 sevensgzero [6] $end
$var wire 1 3 sevensgzero [5] $end
$var wire 1 4 sevensgzero [4] $end
$var wire 1 5 sevensgzero [3] $end
$var wire 1 6 sevensgzero [2] $end
$var wire 1 7 sevensgzero [1] $end
$var wire 1 8 sevensgzero [0] $end
$var wire 1 9 sampler $end
$scope module i1 $end
$var wire 1 : gnd $end
$var wire 1 ; vcc $end
$var wire 1 < unknown $end
$var tri1 1 = devclrn $end
$var tri1 1 > devpor $end
$var tri1 1 ? devoe $end
$var wire 1 @ now_state.s0~0_combout $end
$var wire 1 A now_state.s0~1_combout $end
$var wire 1 B reset~combout $end
$var wire 1 C now_state.s5~0_combout $end
$var wire 1 D now_state.s0~2_combout $end
$var wire 1 E now_state.s1~0_combout $end
$var wire 1 F now_state.s1~1_combout $end
$var wire 1 G now_state.s3~0_combout $end
$var wire 1 H now_state.s3~1_combout $end
$var wire 1 I now_state.s4~0_combout $end
$var wire 1 J now_state.s4~1_combout $end
$var wire 1 K now_state.s5~1_combout $end
$var wire 1 L now_state.s5~2_combout $end
$var wire 1 M coffee~0_combout $end
$var wire 1 N WideOr5~combout $end
$var wire 1 O now_state.s2~0_combout $end
$var wire 1 P now_state.s2~1_combout $end
$var wire 1 Q hund|seg[0]~0_combout $end
$var wire 1 R hund|seg[0]~1_combout $end
$var wire 1 S hund|seg[2]~2_combout $end
$var wire 1 T hund|seg[2]~3_combout $end
$var wire 1 U WideOr8~combout $end
$var wire 1 V hund|Equal9~0_combout $end
$var wire 1 W WideOr7~0_combout $end
$var wire 1 X coin~combout [1] $end
$var wire 1 Y coin~combout [0] $end
$upscope $end
$upscope $end
$enddefinitions $end
#0
$dumpvars
b0 !
1"
0H
0I
0J
0K
0L
0M
0N
0O
0P
0Q
0R
1S
0T
0U
0V
0W
0Y
0X
0#
0*
0)
0(
0'
0&
0%
1$
01
00
0/
0.
0-
0,
1+
08
07
06
05
04
03
12
x9
0:
1;
x<
1=
1>
1?
0@
1A
1B
0C
1D
0E
0F
0G
$end
#20000
0"
0B
09
#100000
b10 !
1X
19
1O
1L
0A
1P
0D
1V
1U
0S
1Q
0O
1J
1@
1R
0P
1W
0Q
1M
1%
1&
1S
0J
0R
1'
1*
1#
0$
0W
0V
0U
0M
0@
0'
0*
0%
0&
0#
1$
#150000
b0 !
0X
09
0L
#200000
b10 !
1X
19
1L
#250000
b11 !
b1 !
1Y
0X
09
0L
#300000
b0 !
0Y
19
#350000
b10 !
1X
09
1L
#400000
b0 !
0X
19
0L
#450000
b1 !
1Y
09
#500000
b0 !
0Y
19
#550000
b1 !
1Y
09
#650000
b0 !
0Y
19
#700000
b10 !
b11 !
1Y
1X
09
1O
1I
1G
