student_choi/VHDL_SOC/5_29_ex052_cnt_60/cnt_60_sw/simulation/qsim/cnt_60.msim.vcd
$comment
	File created using the following command:
		vcd file cnt_60.msim.vcd -direction
$end
$date
	Wed May 29 12:41:47 2019
$end
$version
	ModelSim Version 10.1d
$end
$timescale
	1ps
$end
$scope module cnt_60_vlg_vec_tst $end
$var reg 1 ! clk $end
$var reg 1 " nrst $end
$var wire 1 # carry $end
$var wire 1 $ digit_one [3] $end
$var wire 1 % digit_one [2] $end
$var wire 1 & digit_one [1] $end
$var wire 1 ' digit_one [0] $end
$var wire 1 ( digit_ten [3] $end
$var wire 1 ) digit_ten [2] $end
$var wire 1 * digit_ten [1] $end
$var wire 1 + digit_ten [0] $end
$var wire 1 , sampler $end
$scope module i1 $end
$var wire 1 - gnd $end
$var wire 1 . vcc $end
$var wire 1 / unknown $end
$var tri1 1 0 devclrn $end
$var tri1 1 1 devpor $end
$var tri1 1 2 devoe $end
$var wire 1 3 Add2~0_combout $end
$var wire 1 4 Add0~0_combout $end
$var wire 1 5 clk~combout $end
$var wire 1 6 clk~clkctrl_outclk $end
$var wire 1 7 Add2~1 $end
$var wire 1 8 Add2~2_combout $end
$var wire 1 9 nrst~combout $end
$var wire 1 : Add2~3 $end
$var wire 1 ; Add2~4_combout $end
$var wire 1 < cnt~3_combout $end
$var wire 1 = Add2~5 $end
$var wire 1 > Add2~7 $end
$var wire 1 ? Add2~8_combout $end
$var wire 1 @ cnt~1_combout $end
$var wire 1 A Add2~9 $end
$var wire 1 B Add2~10_combout $end
$var wire 1 C cnt~0_combout $end
$var wire 1 D Add2~6_combout $end
$var wire 1 E cnt~2_combout $end
$var wire 1 F Equal0~0_combout $end
$var wire 1 G timeone[2]~1_combout $end
$var wire 1 H timeone[2]~2_combout $end
$var wire 1 I nrst~clkctrl_outclk $end
$var wire 1 J timeone~3_combout $end
$var wire 1 K Equal0~1_combout $end
$var wire 1 L timeone~0_combout $end
$var wire 1 M Equal1~0_combout $end
$var wire 1 N timeten~2_combout $end
$var wire 1 O timeten~3_combout $end
$var wire 1 P timeten~5_combout $end
$var wire 1 Q timeten~4_combout $end
$var wire 1 R timeone[0]~4_combout $end
$var wire 1 S timeten [3] $end
$var wire 1 T timeten [2] $end
$var wire 1 U timeten [1] $end
$var wire 1 V timeten [0] $end
$var wire 1 W timeone [3] $end
$var wire 1 X timeone [2] $end
$var wire 1 Y timeone [1] $end
$var wire 1 Z timeone [0] $end
$var wire 1 [ cnt [5] $end
$var wire 1 \ cnt [4] $end
$var wire 1 ] cnt [3] $end
$var wire 1 ^ cnt [2] $end
$var wire 1 _ cnt [1] $end
$var wire 1 ` cnt [0] $end
$upscope $end
$upscope $end
$enddefinitions $end
#0
$dumpvars
0!
1"
0#
0'
0&
0%
0$
0+
0*
0)
0(
x,
0-
1.
x/
10
11
12
13
04
05
06
07
08
19
1:
0;
0<
0=
1>
0?
0@
0A
0B
0C
0D
0E
0F
1G
0H
1I
0J
0K
0L
0M
0N
0O
0P
0Q
1R
0V
0U
0T
0S
0Z
0Y
0X
0W
0`
0_
0^
0]
0\
0[
$end
#10000
1!
15
16
0,
1`
17
03
18
#20000
0!
05
06
1,
#30000
1!
15
16
0,
1_
0`
0:
08
07
13
1;
1:
18
1<
0;
0<
#40000
0!
05
06
1,
#50000
1!
15
16
0,
1`
17
03
0:
08
1;
1<
#60000
0!
05
06
1,
#70000
1!
15
16
0,
1^
0_
0`
1=
0;
1:
18
07
13
1D
0<
0=
1;
08
1E
0D
1<
0E
#80000
0!
05
06
1,
#90000
1!
15
16
0,
1`
17
03
18
#100000
0!
05
06
1,
#110000
1!
15
16
0,
1_
0`
0:
08
07
13
1=
0;
1:
18
1D
0<
0=
1;
1E
0D
1<
0E
#120000
0!
05
06
1,
#130000
1!
15
16
0,
1`
17
03
0:
08
1=
0;
1D
0<
1E
#140000
0!
05
06
1,
#150000
1!
15
16
0,
1]
0^
0_
0`
0>
0D
0=
1;
1:
18
07
13
1?
0E
1>
1D
1<
0;
08
1@
0?
1E
0<
0@
#160000
0!
05
06
1,
#170000
1!
15
16
0,
1`
17
03
18
#180000
0!
05
06
1,
#190000
1!
15
16
0,
1_
0`
0:
08
07
13
1;
1:
18
1<
0;
0<
#200000
0!
05
06
1,
#210000
1!
15
16
0,
1`
17
03
0:
08
1;
1<
#220000
0!
05
06
1,
#230000
1!
15
16
0,
1^
0_
0`
1=
0;
1:
18
07
13
0>
0D
0<
0=
1;
08
1?
0E
1>
1D
1<
1@
0?
1E
0@
#240000
0!
05
06
1,
#250000
1!
15
16
0,
1`
17
03
18
#260000
0!
05
06
1,
#270000
1!
15
16
0,
1_
0`
0:
08
07
13
1=
0;
1:
18
0>
0D
0<
0=
1;
1?
0E
1>
1D
1<
1@
0?
1E
0@
#280000
0!
05
06
1,
#290000
1!
15
16
0,
1`
17
03
0:
08
1=
0;
0>
0D
0<
1?
0E
1@
#300000
0!
05
06
1,
#310000
1!
15
16
0,
0]
1\
0^
0_
0`
1>
1D
1A
0?
0=
1;
1:
18
07
13
0A
1?
1E
1B
0@
0D
1<
0;
08
0B
1@
1C
0E
0<
0C
#320000
0!
05
06
1,
#330000
1!
15
16
0,
1`
17
03
18
#340000
0!
05
06
1,
#350000
1!
15
16
0,
1_
0`
0:
08
07
13
1;
1:
18
1<
0;
0<
#360000
0!
05
06
1,
#370000
1!
15
16
0,
1`
17
03
0:
08
1;
1<
#380000
0!
05
06
1,
#390000
1!
15
16
0,
1^
0_
0`
1=
0;
1:
18
07
13
1D
0<
0=
1;
08
1E
0D
1<
0E
#400000
0!
05
06
1,
#410000
1!
15
16
0,
1`
17
03
18
#420000
0!
05
06
1,
#430000
1!
15
16
0,
1_
0`
0:
08
07
13
1=
0;
1:
18
1D
0<
0=
1;
1E
0D
1<
0E
#440000
0!
05
06
1,
#450000
1!
15
16
0,
1`
17
03
0:
08
1=
0;
1D
0<
1E
#460000
0!
05
06
1,
#470000
1!
15
16
0,
1]
0^
0_
0`
0>
0D
0=
1;
1:
18
07
13
1A
0?
0E
1>
1D
1<
0;
08
1B
0@
0A
1?
1E
0<
1C
0B
1@
0C
#480000
0!
05
06
1,
#490000
1!
15
16
0,
1`
17
03
18
#500000
0!
05
06
1,
#510000
1!
15
16
0,
1_
0`
0:
08
07
13
1;
1:
18
1<
0;
0<
#520000
0!
05
06
1,
#530000
1!
15
16
0,
1`
17
03
0:
08
1;
1<
#540000
0!
05
06
1,
#550000
1!
15
16
0,
1^
0_
0`
1=
0;
1:
18
07
13
0>
0D
0<
0=
1;
08
1A
0?
0E
1>
1D
1<
1B
0@
0A
1?
1E
1C
0B
1@
0C
#560000
0!
05
06
1,
#570000
1!
15
16
0,
1`
17
03
18
#580000
0!
05
06
1,
#590000
1!
15
16
0,
1_
0`
0:
08
07
13
1=
0;
1:
18
0>
0D
0<
0=
1;
1A
0?
0E
1>
1D
1<
1B
0@
0A
1?
1E
1C
0B
1@
0C
#600000
0!
05
06
1,
#610000
1!
15
16
0,
1`
17
03
0:
08
1=
0;
0>
0D
0<
1A
0?
0E
1B
0@
1C
#620000
0!
05
06
1,
#630000
1!
15
16
0,
0]
1[
0\
0^
0_
0`
1>
1D
0B
0A
1?
0=
1;
1:
18
07
13
0?
1E
0C
1B
1@
0D
1<
0;
08
0@
1C
0E
0<
#640000
0!
05
06
1,
#650000
1!
15
16
0,
1`
17
03
18
#660000
0!
05
06
1,
#670000
1!
15
16
0,
1_
0`
0:
08
07
13
1;
1:
18
1<
0;
0<
#680000
0!
05
06
1,
#690000
1!
15
16
0,
1`
17
03
0:
08
1;
1<
#700000
0!
05
06
1,
#710000
1!
15
16
0,
1^
0_
0`
1=
0;
1:
18
07
13
1D
0<
0=
1;
08
1E
0D
1<
0E
#720000
0!
05
06
1,
#730000
1!
15
16
0,
1`
17
03
18
#740000
0!
05
06
1,
#750000
1!
15
16
0,
1_
0`
0:
08
07
13
1=
0;
1:
18
1D
0<
0=
1;
1E
0D
1<
0E
#760000
0!
05
06
1,
#770000
1!
15
16
0,
1`
17
03
0:
08
1=
0;
1D
0<
1E
#780000
0!
05
06
1,
#790000
1!
15
16
0,
1]
0^
0_
0`
0>
0D
0=
1;
1:
18
07
13
1?
0E
1>
1D
1<
0;
08
1@
0?
1E
0<
0@
#800000
0!
05
06
1,
#810000
1!
15
16
0,
1`
17
03
18
#820000
0!
05
06
1,
#830000
1!
15
16
0,
1_
0`
0:
08
07
13
1;
1:
18
1<
0;
0<
#840000
0!
05
06
1,
#850000
1!
15
16
0,
1`
17
03
0:
08
1;
1<
#860000
0!
05
06
1,
#870000
1!
15
16
0,
1^
0_
0`
1=
0;
1:
18
07
13
0>
0D
0<
0=
1;
08
1?
0E
1>
1D
1<
1@
0?
1E
0@
#880000
0!
05
06
1,
#890000
1!
15
16
0,
1`
17
03
18
#900000
0!
05
06
1,
#910000
1!
15
16
0,
1_
0`
0:
08
07
13
1=
0;
1:
18
0>
0D
0<
0=
1;
1?
0E
1>
1D
1<
1@
0?
1E
0@
#920000
0!
05
06
1,
#930000
1!
15
16
0,
1`
17
03
0:
08
1=
0;
0>
0D
0<
1?
0E
1@
#940000
0!
05
06
1,
#950000
1!
15
16
0,
0]
1\
0^
0_
0`
1>
1D
1A
0?
0=
1;
1:
18
07
13
0A
1?
1E
0B
0@
0D
1<
0;
08
1B
1@
0C
0E
0<
1C
#960000
0!
05
06
1,
#970000
1!
15
16
0,
1`
17
03
18
#980000
0!
05
06
1,
#990000
1!
15
16
0,
1_
0`
0:
08
07
13
1;
1:
18
1<
0;
0<
#1000000
0!
05
06
1,
#1010000
1!
15
16
0,
1`
17
03
0:
08
1;
1<
#1020000
0!
05
06
1,
#1030000
1!
15
16
0,
1^
0_
0`
1=
0;
1:
18
07
13
1D
0<
0=
1;
08
1E
0D
1<
0E
#1040000
0!
05
06
1,
#1050000
1!
15
16
0,
1`
17
03
18
#1060000
0!
05
06
1,
#1070000
1!
15
16
0,
1_
0`
0:
08
07
13
1=
0;
1:
18
1D
0<
0=
1;
1E
0D
1<
0E
#1080000
0!
05
06
1,
#1090000
1!
15
16
0,
1`
17
03
0:
08
1=
0;
1D
0<
1E
#1100000
0!
05
06
1,
#1110000
1!
15
16
0,
1]
0^
0_
0`
0>
0D
0=
1;
1:
18
07
13
1A
0?
0E
1>
1D
1<
0;
08
0B
0@
0A
1?
1E
0<
0C
1B
1@
1C
#1120000
0!
05
06
1,
#1130000
1!
15
16
0,
1`
1F
17
03
18
#1140000
0!
05
06
1,
#1150000
1!
15
16
0,
1_
0`
1K
0E
0C
0@
0:
08
0F
07
13
1;
0K
1E
1C
1@
1:
18
1<
0;
0<
#1160000
0!
05
06
1,
#1170000
1!
15
16
0,
1`
1F
17
03
1K
0E
0C
0@
0:
08
1;
#1180000
0!
05
06
1,
#1190000
1!
15
16
0,
1Z
0]
0[
0\
0_
0`
0R
1L
0F
0D
0B
0?
0K
1E
1C
1@
1<
1:
18
07
13
1'
0E
0C
0@
0;
08
0<
#1200000
0!
05
06
1,
#1210000
1!
15
16
0,
1`
17
03
18
#1220000
0!
05
06
1,
#1230000
1!
15
16
0,
1_
0`
0:
08
07
13
1;
1:
18
1<
0;
0<
#1240000
0!
05
06
1,
#1250000
1!
15
16
0,
1`
17
03
0:
08
1;
1<
#1260000
0!
05
06
1,
#1270000
1!
15
16
0,
1^
0_
0`
1=
0;
1:
18
07
13
1D
0<
0=
1;
08
1E
0D
1<
0E
#1280000
0!
05
06
1,
#1290000
1!
15
16
0,
1`
17
03
18
#1300000
0!
05
06
1,
#1310000
1!
15
16
0,
1_
0`
0:
08
07
13
1=
0;
1:
18
1D
0<
0=
1;
1E
0D
1<
0E
#1320000
0!
05
06
1,
#1330000
1!
15
16
0,
1`
17
03
0:
08
1=
0;
1D
0<
1E
#1340000
0!
05
06
1,
#1350000
1!
15
16
0,
1]
0^
0_
0`
0>
0D
0=
1;
1:
18
07
13
1?
0E
1>
1D
1<
0;
08
1@
0?
1E
0<
0@
#1360000
0!
05
06
1,
#1370000
1!
15
16
0,
1`
17
03
18
#1380000
0!
05
06
1,
#1390000
1!
15
16
0,
1_
0`
0:
08
07
13
1;
1:
18
1<
0;
0<
#1400000
0!
05
06
1,
#1410000
1!
15
16
0,
1`
17
03
0:
08
1;
1<
#1420000
0!
05
06
1,
#1430000
1!
15
16
0,
1^
0_
0`
1=
0;
1:
18
07
13
0>
0D
0<
0=
1;
08
1?
0E
1>
1D
1<
1@
0?
1E
0@
#1440000
0!
05
06
1,
#1450000
1!
15
16
0,
1`
17
03
18
#1460000
0!
05
06
1,
#1470000
1!
15
16
0,
1_
0`
0:
08
07
13
1=
0;
1:
18
0>
0D
0<
0=
1;
1?
0E
1>
1D
1<
1@
0?
1E
0@
#1480000
0!
05
06
1,
#1490000
1!
15
16
0,
1`
17
03
0:
08
1=
0;
0>
0D
0<
1?
0E
1@
#1500000
0!
05
06
1,
#1510000
1!
15
16
0,
0]
1\
0^
0_
0`
1>
1D
1A
0?
0=
1;
1:
18
07
13
0A
1?
1E
1B
0@
0D
1<
0;
08
0B
1@
1C
0E
0<
0C
#1520000
0!
05
06
1,
#1530000
1!
15
16
0,
1`
17
03
18
#1540000
0!
05
06
1,
#1550000
1!
15
16
0,
1_
0`
0:
08
07
13
1;
1:
18
1<
0;
0<
#1560000
0!
05
06
1,
#1570000
1!
15
16
0,
1`
17
03
0:
08
1;
1<
#1580000
0!
05
06
1,
#1590000
1!
15
16
0,
1^
0_
0`
1=
0;
1:
18
07
13
1D
0<
0=
1;
08
1E
0D
1<
0E
#1600000
0!
05
06
1,
#1610000
1!
15
16
0,
1`
17
03
18
#1620000
0!
05
06
1,
#1630000
1!
15
16
0,
1_
0`
0:
08
07
13
1=
0;
1:
18
1D
0<
0=
1;
1E
0D
1<
0E
#1640000
0!
05
06
1,
#1650000
1!
15
16
0,
1`
17
03
0:
08
1=
0;
1D
0<
1E
#1660000
0!
05
06
1,
#1670000
1!
15
16
0,
1]
0^
0_
0`
0>
0D
0=
1;
1:
18
07
13
1A
0?
0E
1>
1D
1<
0;
08
1B
0@
0A
1?
1E
0<
1C
0B
1@
0C
#1680000
0!
05
06
1,
#1690000
1!
15
16
0,
1`
17
03
18
#1700000
0!
05
06
1,
#1710000
1!
15
16
0,
1_
0`
0:
08
07
13
1;
1:
18
1<
0;
0<
#1720000
0!
05
06
1,
#1730000
1!
15
16
0,
1`
17
03
0:
08
1;
1<
#1740000
0!
05
06
1,
#1750000
1!
15
16
0,
1^
0_
0`
1=
0;
1:
18
07
13
0>
0D
0<
0=
1;
08
1A
0?
0E
1>
1D
1<
1B
0@
0A
1?
1E
1C
0B
1@
0C
#1760000
0!
05
06
1,
#1770000
1!
15
16
0,
1`
17
03
18
#1780000
0!
05
06
1,
#1790000
1!
15
16
0,
1_
0`
0:
08
07
13
1=
0;
1:
18
0>
0D
0<
0=
1;
1A
0?
0E
1>
1D
1<
1B
0@
0A
1?
1E
1C
0B
1@
0C
#1800000
0!
05
06
1,
#1810000
1!
15
16
0,
1`
17
03
0:
08
1=
0;
0>
0D
0<
1A
0?
0E
1B
0@
1C
#1820000
0!
05
06
1,
#1830000
1!
15
16
0,
0]
1[
0\
0^
0_
0`
1>
1D
0B
0A
1?
0=
1;
1:
18
07
13
0?
1E
0C
1B
1@
0D
1<
0;
08
0@
1C
0E
0<
#1840000
0!
05
06
1,
#1850000
1!
15
16
0,
1`
17
03
18
#1860000
0!
05
06
1,
#1870000
1!
15
16
0,
1_
0`
0:
08
07
13
1;
1:
18
1<
0;
0<
#1880000
0!
05
06
1,
#1890000
1!
15
16
0,
1`
17
03
0:
08
1;
1<
#1900000
0!
05
06
1,
#1910000
1!
15
16
0,
1^
0_
0`
1=
0;
1:
18
07
13
1D
0<
0=
1;
08
1E
0D
1<
0E
#1920000
0!
05
06
1,
#1930000
1!
15
16
0,
1`
17
03
18
#1940000
0!
05
06
1,
#1950000
1!
15
16
0,
1_
0`
0:
08
07
13
1=
0;
1:
18
1D
0<
0=
1;
1E
0D
1<
0E
#1960000
0!
05
06
1,
#1970000
1!
15
16
0,
1`
17
03
0:
08
1=
0;
1D
0<
1E
#1980000
0!
05
06
1,
#1990000
1!
15
16
0,
1]
0^
0_
0`
0>
0D
0=
1;
1:
18
07
13
1?
0E
1>
1D
1<
0;
08
1@
0?
1E
0<
0@
